%YAML 1.1
%TAG !u! tag:unity3d.com,2011:
--- !u!114 &11400000
MonoBehaviour:
  m_ObjectHideFlags: 0
  m_CorrespondingSourceObject: {fileID: 0}
  m_PrefabInstance: {fileID: 0}
  m_PrefabAsset: {fileID: 0}
  m_GameObject: {fileID: 0}
  m_Enabled: 1
  m_EditorHideFlags: 0
  m_Script: {fileID: 11500000, guid: 9e1a830f6373e664e891a991965a0261, type: 3}
  m_Name: Twig
  m_EditorClassIdentifier: 
  itemName: Twig
  itemDesc: "\uB098\uBB47\uAC00\uC9C0"
  itemType: 2
  itemImage: {fileID: 21300000, guid: fa6046a36d6711947b14b37b4566a869, type: 3}
  itemPrefab: {fileID: 104297744215465441, guid: 30176c3ef0991f640b5b0931456ed5c4,
    type: 3}
  weaponType: 
